Yingying Yu - Cheatsheet for R
…
complete(): make implicit missing values explicit

drop_na(): make explicit missing values implicit

fill(): replace missing values with next/previous value

replace_na(): replace missing values with a known value

sum_table <- sum_table %>% 
  pivot_longer(cols = c("White", "Black", "Native", "Asian", "Islander", "Other"),
               names_to = "Race",
               values_to = "Value")
sum_table

# A tibble: 24 × 3
   region         Race       Value
   <chr>          <chr>      <dbl>
 1 Bay Area       White    114912.
 2 Bay Area       Black     69085 
 3 Bay Area       Native    84676 
 4 Bay Area       Asian    120988 
 5 Bay Area       Islander  92294 
 6 Bay Area       Other     72606.
 7 Capital Region White     72706.
 8 Capital Region Black     58022.
 9 Capital Region Native    50799.
10 Capital Region Asian     79919.
# ℹ 14 more rows
…
